<?xml version="1.0" encoding="UTF-8" standalone="no"?>
<!DOCTYPE svg PUBLIC "-//W3C//DTD SVG 20010904//EN"
"http://www.w3.org/TR/2001/REC-SVG-20010904/DTD/svg10.dtd"
[
 <!ATTLIST svg
  xmlns:xlink CDATA #FIXED "http://www.w3.org/1999/xlink">
]>
<!-- Created with Sodipodi ("http://www.sodipodi.com/") -->
<svg
   xmlns="http://www.w3.org/2000/svg"
   xmlns:xlink="http://www.w3.org/1999/xlink"
   version="1"
   x="0"
   y="0"
   width="125"
   height="125"
   id="svg101">
  <defs
     id="defs103" />
  <g
     style="font-size:12;"
     id="g529">
    <path
       d="M 6.2796 6.74281 L 6.2796 118.768 L 118.718 118.768 L 118.718 6.74281 L 6.2796 6.74281 z "
       style="fill:#406cff;fill-rule:evenodd;stroke-width:0pt;"
       id="path528" />
    <path
       d="M 35.5127 16.6439 L 35.5127 30.6839 L 39.1527 30.6839 L 39.1527 23.2219 C 39.1527 21.0899 40.2187 20.0239 42.3507 20.0239 C 42.7407 20.0239 43.0007 20.0499 43.4947 20.1279 L 43.4947 16.4359 C 43.2867 16.4099 43.1567 16.4099 43.0527 16.4099 C 41.3887 16.4099 39.9327 17.5019 39.1527 19.3999 L 39.1527 16.6439 L 35.5127 16.6439 z M 19.7307 11.7299 L 19.7307 30.6839 L 23.3707 30.6839 L 23.3707 22.2599 C 23.3707 20.6479 24.5407 19.5039 26.1787 19.5039 C 26.9587 19.5039 27.5827 19.7899 27.9987 20.3619 C 28.3107 20.8299 28.4147 21.1939 28.4147 22.1039 L 28.4147 30.6839 L 32.0547 30.6839 L 32.0547 21.2719 C 32.0547 19.5299 31.5867 18.2819 30.6247 17.4759 C 29.8187 16.7999 28.6487 16.4099 27.4787 16.4099 C 25.6847 16.4099 24.3847 17.1379 23.3707 18.6719 L 23.3707 11.7299 L 19.7307 11.7299 z M 12.1127 14.9799 L 17.6507 14.9799 L 17.6507 11.7299 L 2.46674 11.7299 L 2.46674 14.9799 L 8.21274 14.9799 L 8.21274 30.6839 L 12.1127 30.6839 L 12.1127 14.9799 z "
       transform="scale(2.72173,2.86714)"
       style="font-size:26;font-weight:bold;fill:#e64ca6;stroke-width:1pt;font-family:Helvetica;"
       id="path527" />
  </g>
</svg>
