<?xml version="1.0" encoding="UTF-8" standalone="no"?>
<!-- Created with Sodipodi ("http://www.sodipodi.com/") -->
<svg
   xmlns:dc="http://purl.org/dc/elements/1.1/"
   xmlns:cc="http://web.resource.org/cc/"
   xmlns:rdf="http://www.w3.org/1999/02/22-rdf-syntax-ns#"
   xmlns:svg="http://www.w3.org/2000/svg"
   xmlns="http://www.w3.org/2000/svg"
   xmlns:xlink="http://www.w3.org/1999/xlink"
   xmlns:sodipodi="http://sodipodi.sourceforge.net/DTD/sodipodi-0.dtd"
   xmlns:inkscape="http://www.inkscape.org/namespaces/inkscape"
   version="1"
   x="0"
   y="0"
   width="125"
   height="125"
   id="svg101"
   sodipodi:version="0.32"
   sodipodi:docname="disulfidebond-cross-link.svg"
   sodipodi:docbase="/home/rusconi/devel/massxpert/data/pol-chem-defs/protein-1-letter"
   inkscape:version="0.45.1"
   inkscape:output_extension="org.inkscape.output.svg.inkscape">
  <metadata
     id="metadata6">
    <rdf:RDF>
      <cc:Work
         rdf:about="">
        <dc:format>image/svg+xml</dc:format>
        <dc:type
           rdf:resource="http://purl.org/dc/dcmitype/StillImage" />
      </cc:Work>
    </rdf:RDF>
  </metadata>
  <sodipodi:namedview
     id="base"
     inkscape:zoom="6.728"
     inkscape:cx="62.5"
     inkscape:cy="62.5"
     inkscape:window-width="1519"
     inkscape:window-height="1034"
     inkscape:window-x="192"
     inkscape:window-y="25"
     inkscape:current-layer="svg101" />
  <defs
     id="defs103">
    <linearGradient
       id="linearGradient3197">
      <stop
         style="stop-color:#000000;stop-opacity:1;"
         offset="0"
         id="stop3199" />
      <stop
         id="stop3205"
         offset="0.5"
         style="stop-color:#000000;stop-opacity:1;" />
      <stop
         style="stop-color:#000000;stop-opacity:0.87628865;"
         offset="0.75"
         id="stop3207" />
      <stop
         style="stop-color:#000000;stop-opacity:0.38144329;"
         offset="1"
         id="stop3201" />
    </linearGradient>
    <linearGradient
       id="linearGradient3177">
      <stop
         id="stop3189"
         offset="0"
         style="stop-color:#000000;stop-opacity:1;" />
      <stop
         style="stop-color:#000000;stop-opacity:0.50980395;"
         offset="0.5"
         id="stop3195" />
      <stop
         style="stop-color:#000000;stop-opacity:0.97938144;"
         offset="1"
         id="stop3193" />
    </linearGradient>
    <linearGradient
       inkscape:collect="always"
       xlink:href="#linearGradient3177"
       id="linearGradient3187"
       x1="13.974026"
       y1="99.651367"
       x2="55.130276"
       y2="99.651367"
       gradientUnits="userSpaceOnUse" />
    <radialGradient
       inkscape:collect="always"
       xlink:href="#linearGradient3197"
       id="radialGradient3203"
       cx="61.157383"
       cy="105.7453"
       fx="61.157383"
       fy="105.7453"
       r="20.578125"
       gradientTransform="matrix(1,0,0,0.5094914,0,51.868981)"
       gradientUnits="userSpaceOnUse" />
    <radialGradient
       inkscape:collect="always"
       xlink:href="#linearGradient3197"
       id="radialGradient3213"
       gradientUnits="userSpaceOnUse"
       gradientTransform="matrix(1,0,0,0.5094914,-26.605232,47.707269)"
       cx="61.157383"
       cy="105.7453"
       fx="61.157383"
       fy="105.7453"
       r="20.578125" />
    <radialGradient
       inkscape:collect="always"
       xlink:href="#linearGradient3197"
       id="radialGradient3217"
       gradientUnits="userSpaceOnUse"
       gradientTransform="matrix(1,0,0,0.5094914,27.300832,47.707269)"
       cx="61.157383"
       cy="105.7453"
       fx="61.157383"
       fy="105.7453"
       r="20.578125" />
  </defs>
  <path
     id="path2184"
     d="M 50.235508,95.260925 C 44.877842,95.260925 40.579258,99.955779 40.579258,105.76092 C 40.579258,111.56607 44.877843,116.22968 50.235508,116.22968 L 72.079258,116.22968 C 77.436923,116.22968 81.735508,111.56607 81.735508,105.76092 C 81.735508,99.955782 77.436923,95.260925 72.079258,95.260925 L 50.235508,95.260925 z M 52.704258,98.698425 L 69.923008,98.698425 C 74.15172,98.698425 77.548008,101.84966 77.548008,105.76092 C 77.548008,109.67219 74.151719,112.82343 69.923008,112.82343 L 52.704258,112.82343 C 48.475546,112.82343 45.048008,109.6722 45.048008,105.76092 C 45.048008,101.84965 48.475547,98.698425 52.704258,98.698425 z "
     style="opacity:0.98999999;fill:url(#radialGradient3203);fill-opacity:1.0;stroke:none;stroke-width:3;stroke-miterlimit:4;stroke-opacity:1" />
  <path
     style="opacity:0.98999999;fill:url(#radialGradient3213);fill-opacity:1;stroke:none;stroke-width:3;stroke-miterlimit:4;stroke-opacity:1"
     d="M 23.630276,91.099213 C 18.27261,91.099213 13.974026,95.794067 13.974026,101.59921 C 13.974026,107.40435 18.272611,112.06796 23.630276,112.06796 L 45.474026,112.06796 C 50.831691,112.06796 55.130276,107.40435 55.130276,101.59921 C 55.130276,95.79407 50.831691,91.099213 45.474026,91.099213 L 23.630276,91.099213 z M 26.099026,94.536713 L 43.317776,94.536713 C 47.546488,94.536713 50.942776,97.687948 50.942776,101.59921 C 50.942776,105.51047 47.546487,108.66171 43.317776,108.66171 L 26.099026,108.66171 C 21.870314,108.66171 18.442776,105.51048 18.442776,101.59921 C 18.442776,97.687938 21.870315,94.536713 26.099026,94.536713 z "
     id="path3211" />
  <path
     id="path3215"
     d="M 77.53634,91.099213 C 72.178674,91.099213 67.88009,95.794067 67.88009,101.59921 C 67.88009,107.40435 72.178675,112.06796 77.53634,112.06796 L 99.380094,112.06796 C 104.73775,112.06796 109.03634,107.40435 109.03634,101.59921 C 109.03634,95.79407 104.73775,91.099213 99.380094,91.099213 L 77.53634,91.099213 z M 80.00509,94.536713 L 97.223844,94.536713 C 101.45255,94.536713 104.84884,97.687948 104.84884,101.59921 C 104.84884,105.51047 101.45255,108.66171 97.223844,108.66171 L 80.00509,108.66171 C 75.776378,108.66171 72.34884,105.51048 72.34884,101.59921 C 72.34884,97.687938 75.776379,94.536713 80.00509,94.536713 z "
     style="opacity:0.98999999;fill:url(#radialGradient3217);fill-opacity:1;stroke:none;stroke-width:3;stroke-miterlimit:4;stroke-opacity:1" />
  <text
     xml:space="preserve"
     style="font-size:16.6335659px;font-style:normal;font-weight:normal;fill:#ff0000;fill-opacity:1;stroke:none;stroke-width:1px;stroke-linecap:butt;stroke-linejoin:miter;stroke-opacity:1;font-family:Bitstream Vera Sans"
     x="21.298031"
     y="111.9923"
     id="text2172"
     transform="scale(1.0441485,0.9577181)"><tspan
       sodipodi:role="line"
       id="tspan2174"
       x="21.298031"
       y="111.9923">S</tspan></text>
  <text
     transform="scale(1.0441485,0.9577181)"
     id="text2176"
     y="111.99229"
     x="86.920509"
     style="font-size:16.6335659px;font-style:normal;font-weight:normal;fill:#ff0000;fill-opacity:1;stroke:none;stroke-width:1px;stroke-linecap:butt;stroke-linejoin:miter;stroke-opacity:1;font-family:Bitstream Vera Sans"
     xml:space="preserve"><tspan
       y="111.99229"
       x="86.920509"
       id="tspan2178"
       sodipodi:role="line">S</tspan></text>
</svg>
