<?xml version="1.0" encoding="UTF-8" standalone="no"?>
<!-- Created with Sodipodi ("http://www.sodipodi.com/") -->
<svg
   xmlns:dc="http://purl.org/dc/elements/1.1/"
   xmlns:cc="http://web.resource.org/cc/"
   xmlns:rdf="http://www.w3.org/1999/02/22-rdf-syntax-ns#"
   xmlns:svg="http://www.w3.org/2000/svg"
   xmlns="http://www.w3.org/2000/svg"
   xmlns:sodipodi="http://sodipodi.sourceforge.net/DTD/sodipodi-0.dtd"
   xmlns:inkscape="http://www.inkscape.org/namespaces/inkscape"
   version="1"
   x="0"
   y="0"
   width="125"
   height="125"
   id="svg101"
   sodipodi:version="0.32"
   sodipodi:docname="valine.svg"
   sodipodi:docbase="/home/rusconi/devel/massxpert/data/pol-chem-defs/protein-1-letter"
   inkscape:version="0.45.1"
   inkscape:output_extension="org.inkscape.output.svg.inkscape">
  <metadata
     id="metadata2989">
    <rdf:RDF>
      <cc:Work
         rdf:about="">
        <dc:format>image/svg+xml</dc:format>
        <dc:type
           rdf:resource="http://purl.org/dc/dcmitype/StillImage" />
      </cc:Work>
    </rdf:RDF>
  </metadata>
  <sodipodi:namedview
     id="base"
     inkscape:zoom="3.024"
     inkscape:cx="62.5"
     inkscape:cy="62.5"
     inkscape:window-width="745"
     inkscape:window-height="571"
     inkscape:window-x="755"
     inkscape:window-y="0"
     inkscape:current-layer="svg101" />
  <defs
     id="defs103" />
  <path
     d="M 11.4715 20.0997 L 17.9715 1.1457 L 14.0455 1.1457 L 9.91154 15.4197 L 5.69954 1.1457 L 1.77354 1.1457 L 8.16954 20.0997 L 11.4715 20.0997 z "
     transform="scale(5.90364,5.90364)"
     style="font-size:26;font-weight:bold;fill:#e2bd00;stroke-width:1pt;font-family:Helvetica;"
     id="path108" />
</svg>
