<?xml version="1.0" encoding="UTF-8" standalone="no"?>
<!-- Created with Sodipodi ("http://www.sodipodi.com/") -->
<svg
   xmlns:dc="http://purl.org/dc/elements/1.1/"
   xmlns:cc="http://web.resource.org/cc/"
   xmlns:rdf="http://www.w3.org/1999/02/22-rdf-syntax-ns#"
   xmlns:svg="http://www.w3.org/2000/svg"
   xmlns="http://www.w3.org/2000/svg"
   xmlns:sodipodi="http://sodipodi.sourceforge.net/DTD/sodipodi-0.dtd"
   xmlns:inkscape="http://www.inkscape.org/namespaces/inkscape"
   version="1"
   x="0"
   y="0"
   width="100pt"
   height="100pt"
   id="svg101"
   sodipodi:version="0.32"
   sodipodi:docname="xylulose-text.svg"
   sodipodi:docbase="/home/rusconi/devel/massxpert/data/pol-chem-defs/saccharide"
   inkscape:version="0.44.1">
  <metadata
     id="metadata38">
    <rdf:RDF>
      <cc:Work
         rdf:about="">
        <dc:format>image/svg+xml</dc:format>
        <dc:type
           rdf:resource="http://purl.org/dc/dcmitype/StillImage" />
      </cc:Work>
    </rdf:RDF>
  </metadata>
  <sodipodi:namedview
     id="base"
     inkscape:zoom="5.2689208"
     inkscape:cx="51.932023"
     inkscape:cy="58.008759"
     inkscape:window-width="1187"
     inkscape:window-height="933"
     inkscape:window-x="0"
     inkscape:window-y="30"
     inkscape:current-layer="svg101"
     showguides="true"
     inkscape:guide-bbox="true">
    <sodipodi:guide
       orientation="horizontal"
       position="71.562508"
       id="guide147" />
    <sodipodi:guide
       orientation="vertical"
       position="62.062045"
       id="guide3149" />
  </sodipodi:namedview>
  <defs
     id="defs103" />
  <rect
     width="112.43826"
     height="112.02558"
     x="6.2224951"
     y="6.7353711"
     style="font-size:12px;fill:#e395ad;fill-opacity:1;fill-rule:evenodd;stroke-width:0pt"
     id="rect6775" />
  <text
     id="text1906"
     y="45.926239"
     x="79.173111"
     style="font-size:12px;font-style:normal;font-weight:normal;fill:black;fill-opacity:1;stroke:none;stroke-width:1px;stroke-linecap:butt;stroke-linejoin:miter;stroke-opacity:1;font-family:Bitstream Vera Sans"
     xml:space="preserve"><tspan
       y="45.926239"
       x="79.173111"
       id="tspan1908"
       sodipodi:role="line">O</tspan></text>
  <text
     id="text1914"
     y="87.807693"
     x="79.255089"
     style="font-size:12px;font-style:normal;font-weight:normal;fill:black;fill-opacity:1;stroke:none;stroke-width:1px;stroke-linecap:butt;stroke-linejoin:miter;stroke-opacity:1;font-family:Bitstream Vera Sans"
     xml:space="preserve"><tspan
       y="87.807693"
       x="79.255089"
       id="tspan1916"
       sodipodi:role="line">OH</tspan></text>
  <text
     xml:space="preserve"
     style="font-size:12px;font-style:normal;font-weight:normal;fill:black;fill-opacity:1;stroke:none;stroke-width:1px;stroke-linecap:butt;stroke-linejoin:miter;stroke-opacity:1;font-family:Bitstream Vera Sans"
     x="36.126934"
     y="87.990433"
     id="text1926"><tspan
       sodipodi:role="line"
       id="tspan1928"
       x="36.126934"
       y="87.990433">H</tspan></text>
  <path
     id="text1922"
     style="font-size:12px;font-style:normal;font-weight:normal;fill:black;fill-opacity:1;stroke:none;stroke-width:1px;stroke-linecap:butt;stroke-linejoin:miter;stroke-opacity:1;font-family:Bitstream Vera Sans"
     d="M 65.791717,98.857873 L 65.791717,100.10592 C 65.393272,99.734833 64.967492,99.457493 64.514374,99.273893 C 64.065149,99.090303 63.586634,98.998513 63.078827,98.998503 C 62.078823,98.998513 61.313198,99.305153 60.781952,99.918423 C 60.250699,100.5278 59.985075,101.41061 59.985077,102.56686 C 59.985075,103.7192 60.250699,104.60202 60.781952,105.21529 C 61.313198,105.82467 62.078823,106.12936 63.078827,106.12936 C 63.586634,106.12936 64.065149,106.03756 64.514374,105.85397 C 64.967492,105.67037 65.393272,105.39303 65.791717,105.02193 L 65.791717,106.25826 C 65.377647,106.53951 64.938195,106.75045 64.473358,106.89108 C 64.012414,107.0317 63.524134,107.10201 63.008514,107.10201 C 61.684292,107.10201 60.641324,106.69772 59.879608,105.88912 C 59.117888,105.07662 58.737029,103.9692 58.73703,102.56686 C 58.737029,101.16061 59.117888,100.05319 59.879608,99.244593 C 60.641324,98.432103 61.684292,98.025853 63.008514,98.025843 C 63.531946,98.025853 64.024133,98.096163 64.485077,98.236783 C 64.949913,98.373513 65.38546,98.580543 65.791717,98.857873 M 67.631561,98.184043 L 68.815155,98.184043 L 68.815155,101.76998 L 73.115936,101.76998 L 73.115936,98.184043 L 74.29953,98.184043 L 74.29953,106.93209 L 73.115936,106.93209 L 73.115936,102.76608 L 68.815155,102.76608 L 68.815155,106.93209 L 67.631561,106.93209 L 67.631561,98.184043 M 76.692466,110.1197 L 80.823326,110.1197 L 80.823326,111.11579 L 75.268638,111.11579 L 75.268638,110.1197 C 75.717856,109.65486 76.329183,109.03181 77.102623,108.25056 C 77.879963,107.4654 78.368244,106.95955 78.567466,106.73298 C 78.946368,106.3072 79.21004,105.94783 79.358482,105.65485 C 79.510821,105.35798 79.586993,105.06697 79.586998,104.78181 C 79.586993,104.31697 79.42293,103.93806 79.09481,103.64509 C 78.770587,103.35213 78.346759,103.20564 77.823326,103.20564 C 77.452229,103.20564 77.059651,103.2701 76.645591,103.39899 C 76.235433,103.52791 75.795981,103.72322 75.327232,103.98493 L 75.327232,102.78962 C 75.803793,102.59822 76.249105,102.45369 76.66317,102.35603 C 77.077229,102.25838 77.456135,102.20955 77.799888,102.20954 C 78.706134,102.20955 79.42879,102.43611 79.967857,102.88923 C 80.506913,103.34236 80.776444,103.94783 80.776451,104.70564 C 80.776444,105.06502 80.708085,105.40681 80.571373,105.73103 C 80.438554,106.05134 80.194414,106.43025 79.838951,106.86774 C 79.741289,106.98103 79.430743,107.30915 78.90731,107.85212 C 78.383869,108.39118 77.645588,109.14704 76.692466,110.1197 M 85.498588,98.983603 C 84.639209,98.983613 83.955616,99.303923 83.447807,99.944543 C 82.943899,100.58517 82.691946,101.45822 82.691948,102.56368 C 82.691946,103.66525 82.943899,104.53634 83.447807,105.17696 C 83.955616,105.81759 84.639209,106.1379 85.498588,106.1379 C 86.357958,106.1379 87.037645,105.81759 87.537651,105.17696 C 88.04155,104.53634 88.293503,103.66525 88.29351,102.56368 C 88.293503,101.45822 88.04155,100.58517 87.537651,99.944543 C 87.037645,99.303923 86.357958,98.983613 85.498588,98.983603 M 85.498588,98.022673 C 86.725145,98.022683 87.705613,98.434783 88.439995,99.259003 C 89.174361,100.07931 89.541548,101.18088 89.541557,102.56368 C 89.541548,103.94259 89.174361,105.04415 88.439995,105.86837 C 87.705613,106.68868 86.725145,107.09884 85.498588,107.09884 C 84.268116,107.09884 83.283742,106.68868 82.545463,105.86837 C 81.811087,105.04806 81.4439,103.9465 81.443901,102.56368 C 81.4439,101.18088 81.811087,100.07931 82.545463,99.259003 C 83.283742,98.434783 84.268116,98.022683 85.498588,98.022673 M 91.39312,98.180873 L 92.576713,98.180873 L 92.576713,101.76681 L 96.877495,101.76681 L 96.877495,98.180873 L 98.061089,98.180873 L 98.061089,106.92892 L 96.877495,106.92892 L 96.877495,102.7629 L 92.576713,102.7629 L 92.576713,106.92892 L 91.39312,106.92892 L 91.39312,98.180873" />
  <path
     id="path3151"
     d="M 62.22477,26.171832 L 62.22477,97.265571"
     style="font-size:12px;fill:none;fill-rule:evenodd;stroke:black;stroke-width:0.96485538pt" />
  <path
     id="path3155"
     d="M 44.86715,83.5691 L 79.24215,83.5691"
     style="font-size:12px;fill:none;fill-rule:evenodd;stroke:black;stroke-width:1pt" />
  <text
     xml:space="preserve"
     style="font-size:12px;font-style:normal;font-weight:normal;fill:black;fill-opacity:1;stroke:none;stroke-width:1px;stroke-linecap:butt;stroke-linejoin:miter;stroke-opacity:1;font-family:Bitstream Vera Sans"
     x="26.224171"
     y="66.11602"
     id="text4757"><tspan
       sodipodi:role="line"
       id="tspan4759"
       x="26.224171"
       y="66.11602">HO</tspan></text>
  <path
     style="font-size:12px;fill:none;fill-rule:evenodd;stroke:black;stroke-width:1pt"
     d="M 44.86715,62.027786 L 79.24215,62.027786"
     id="path4761" />
  <text
     id="text4763"
     y="66.425934"
     x="79.019966"
     style="font-size:12px;font-style:normal;font-weight:normal;fill:black;fill-opacity:1;stroke:none;stroke-width:1px;stroke-linecap:butt;stroke-linejoin:miter;stroke-opacity:1;font-family:Bitstream Vera Sans"
     xml:space="preserve"><tspan
       y="66.425934"
       x="79.019966"
       id="tspan4765"
       sodipodi:role="line">H</tspan></text>
  <g
     id="g2151"
     transform="translate(5.789539,12.03303)">
    <path
       sodipodi:nodetypes="cc"
       style="font-size:12px;fill:none;fill-rule:evenodd;stroke:black;stroke-width:1pt"
       d="M 56.384157,31.45841 L 73.24215,31.45841"
       id="path2147" />
    <path
       id="path2149"
       d="M 56.384157,27.45841 L 73.24215,27.45841"
       style="font-size:12px;fill:none;fill-rule:evenodd;stroke:black;stroke-width:1pt"
       sodipodi:nodetypes="cc" />
  </g>
  <path
     d="M 65.79172,16.857873 L 65.79172,18.10592 C 65.39327,17.734833 64.96749,17.457493 64.51437,17.273893 C 64.06515,17.090303 63.58663,16.998513 63.07883,16.998503 C 62.07882,16.998513 61.3132,17.305153 60.78195,17.918423 C 60.2507,18.5278 59.985075,19.41061 59.985077,20.56686 C 59.985075,21.7192 60.2507,22.60202 60.78195,23.21529 C 61.3132,23.82467 62.07882,24.12936 63.07883,24.12936 C 63.58663,24.12936 64.06515,24.03756 64.51437,23.85397 C 64.96749,23.67037 65.39327,23.39303 65.79172,23.02193 L 65.79172,24.25826 C 65.37765,24.53951 64.93819,24.75045 64.47336,24.89108 C 64.01241,25.0317 63.52413,25.10201 63.00851,25.10201 C 61.68429,25.10201 60.64132,24.69772 59.879608,23.88912 C 59.117888,23.07662 58.737029,21.9692 58.73703,20.56686 C 58.737029,19.16061 59.117888,18.05319 59.879608,17.244593 C 60.64132,16.432103 61.68429,16.025853 63.00851,16.025843 C 63.53195,16.025853 64.02413,16.096163 64.48508,16.236783 C 64.94991,16.373513 65.38546,16.580543 65.79172,16.857873 M 67.63156,16.184043 L 68.81516,16.184043 L 68.81516,19.76998 L 73.11594,19.76998 L 73.11594,16.184043 L 74.29953,16.184043 L 74.29953,24.93209 L 73.11594,24.93209 L 73.11594,20.76608 L 68.81516,20.76608 L 68.81516,24.93209 L 67.63156,24.93209 L 67.63156,16.184043 M 76.69247,28.1197 L 80.82333,28.1197 L 80.82333,29.11579 L 75.26864,29.11579 L 75.26864,28.1197 C 75.71786,27.65486 76.32918,27.03181 77.10262,26.25056 C 77.87996,25.4654 78.36824,24.95955 78.56747,24.73298 C 78.94637,24.3072 79.21004,23.94783 79.35848,23.65485 C 79.51082,23.35798 79.58699,23.06697 79.587,22.78181 C 79.58699,22.31697 79.42293,21.93806 79.09481,21.64509 C 78.77059,21.35213 78.34676,21.20564 77.82333,21.20564 C 77.45223,21.20564 77.05965,21.2701 76.64559,21.39899 C 76.23543,21.52791 75.79598,21.72322 75.32723,21.98493 L 75.32723,20.78962 C 75.80379,20.59822 76.24911,20.45369 76.66317,20.35603 C 77.07723,20.25838 77.45614,20.20955 77.79989,20.20954 C 78.70613,20.20955 79.42879,20.43611 79.96786,20.88923 C 80.50691,21.34236 80.77644,21.94783 80.77645,22.70564 C 80.77644,23.06502 80.70808,23.40681 80.57137,23.73103 C 80.43855,24.05134 80.19441,24.43025 79.83895,24.86774 C 79.74129,24.98103 79.43074,25.30915 78.90731,25.85212 C 78.38387,26.39118 77.64559,27.14704 76.69247,28.1197 M 85.49859,16.983603 C 84.63921,16.983613 83.95562,17.303923 83.44781,17.944543 C 82.9439,18.58517 82.69195,19.45822 82.69195,20.56368 C 82.69195,21.66525 82.9439,22.53634 83.44781,23.17696 C 83.95562,23.81759 84.63921,24.1379 85.49859,24.1379 C 86.35796,24.1379 87.03764,23.81759 87.53765,23.17696 C 88.04155,22.53634 88.2935,21.66525 88.29351,20.56368 C 88.2935,19.45822 88.04155,18.58517 87.53765,17.944543 C 87.03764,17.303923 86.35796,16.983613 85.49859,16.983603 M 85.49859,16.022673 C 86.72514,16.022683 87.70561,16.434783 88.43999,17.259003 C 89.17436,18.07931 89.54155,19.18088 89.54156,20.56368 C 89.54155,21.94259 89.17436,23.04415 88.43999,23.86837 C 87.70561,24.68868 86.72514,25.09884 85.49859,25.09884 C 84.26812,25.09884 83.28374,24.68868 82.54546,23.86837 C 81.81109,23.04806 81.4439,21.9465 81.4439,20.56368 C 81.4439,19.18088 81.81109,18.07931 82.54546,17.259003 C 83.28374,16.434783 84.26812,16.022683 85.49859,16.022673 M 91.39312,16.180873 L 92.57671,16.180873 L 92.57671,19.76681 L 96.87749,19.76681 L 96.87749,16.180873 L 98.06109,16.180873 L 98.06109,24.92892 L 96.87749,24.92892 L 96.87749,20.7629 L 92.57671,20.7629 L 92.57671,24.92892 L 91.39312,24.92892 L 91.39312,16.180873"
     style="font-size:12px;font-style:normal;font-weight:normal;fill:black;fill-opacity:1;stroke:none;stroke-width:1px;stroke-linecap:butt;stroke-linejoin:miter;stroke-opacity:1;font-family:Bitstream Vera Sans"
     id="path6646" />
</svg>
