<?xml version="1.0" encoding="UTF-8" standalone="no"?>
<!-- Created with Sodipodi ("http://www.sodipodi.com/") -->
<svg
   xmlns:dc="http://purl.org/dc/elements/1.1/"
   xmlns:cc="http://web.resource.org/cc/"
   xmlns:rdf="http://www.w3.org/1999/02/22-rdf-syntax-ns#"
   xmlns:svg="http://www.w3.org/2000/svg"
   xmlns="http://www.w3.org/2000/svg"
   xmlns:sodipodi="http://sodipodi.sourceforge.net/DTD/sodipodi-0.dtd"
   xmlns:inkscape="http://www.inkscape.org/namespaces/inkscape"
   version="1"
   x="0"
   y="0"
   width="125"
   height="125"
   id="svg101"
   sodipodi:version="0.32"
   sodipodi:docname="diphospho.svg"
   sodipodi:docbase="/home/rusconi/devel/massxpert/data/pol-chem-defs/dna"
   inkscape:version="0.44.1">
  <metadata
     id="metadata6">
    <rdf:RDF>
      <cc:Work
         rdf:about="">
        <dc:format>image/svg+xml</dc:format>
        <dc:type
           rdf:resource="http://purl.org/dc/dcmitype/StillImage" />
      </cc:Work>
    </rdf:RDF>
  </metadata>
  <sodipodi:namedview
     id="base"
     showguides="true"
     inkscape:guide-bbox="true"
     inkscape:zoom="3.024"
     inkscape:cx="62.5"
     inkscape:cy="62.5"
     inkscape:window-width="810"
     inkscape:window-height="576"
     inkscape:window-x="860"
     inkscape:window-y="30"
     inkscape:current-layer="svg101" />
  <defs
     id="defs103" />
  <path
     style="font-size:50px;font-style:normal;font-variant:normal;font-weight:bold;font-stretch:normal;text-align:start;line-height:125%;writing-mode:lr-tb;text-anchor:start;fill:red;fill-opacity:1;stroke:none;stroke-width:1px;stroke-linecap:butt;stroke-linejoin:miter;stroke-opacity:1;font-family:Bitstream Vera Sans"
     d="M 58.491961,7.2005974 L 74.092547,7.2005974 C 78.731194,7.2006334 82.287506,8.2341614 84.761492,10.301183 C 87.251693,12.351995 88.496809,15.28168 88.496844,19.090245 C 88.496809,22.915136 87.251693,25.861097 84.761492,27.928136 C 82.287506,29.978931 78.731194,31.004321 74.092547,31.004308 L 67.891375,31.004308 L 67.891375,43.650792 L 58.491961,43.650792 L 58.491961,7.2005974 M 67.891375,14.01212 L 67.891375,24.192784 L 73.09157,24.192784 C 74.914466,24.192804 76.322342,23.753351 77.315203,22.874425 C 78.308017,21.979264 78.804436,20.717873 78.804461,19.090245 C 78.804436,17.462667 78.308017,16.209413 77.315203,15.33048 C 76.322342,14.451603 74.914466,14.01215 73.09157,14.01212 L 67.891375,14.01212 M 88.829986,7.2005974 L 104.43057,7.2005974 C 109.06922,7.2006334 112.62553,8.2341614 115.09952,10.301183 C 117.58972,12.351995 118.83483,15.28168 118.83487,19.090245 C 118.83483,22.915136 117.58972,25.861097 115.09952,27.928136 C 112.62553,29.978931 109.06922,31.004321 104.43057,31.004308 L 98.2294,31.004308 L 98.2294,43.650792 L 88.829986,43.650792 L 88.829986,7.2005974 M 98.2294,14.01212 L 98.2294,24.192784 L 103.42959,24.192784 C 105.25249,24.192804 106.66037,23.753351 107.65323,22.874425 C 108.64604,21.979264 109.14246,20.717873 109.14249,19.090245 C 109.14246,17.462667 108.64604,16.209413 107.65323,15.33048 C 106.66037,14.451603 105.25249,14.01215 103.42959,14.01212 L 98.2294,14.01212"
     id="text2211"
     sodipodi:nodetypes="cccsscccccccccsscccccsscccccccccsscc" />
</svg>
